<svg width="24" height="24" viewBox="0 0 24 24" fill="none" xmlns="http://www.w3.org/2000/svg">
<g id="Frame" clip-path="url(#clip0_1_1229)">
<g id="Group">
<path id="Vector" d="M24 -0.000183105H0V23.9998H24V-0.000183105Z" fill="white"/>
<g id="Group_2">
<g id="Group_3">
<g id="Group_4">
<path id="Vector_2" d="M11.9999 9.49962C13.5739 9.49962 14.8499 8.22363 14.8499 6.64962C14.8499 5.07561 13.5739 3.79962 11.9999 3.79962C10.4259 3.79962 9.1499 5.07561 9.1499 6.64962C9.1499 8.22363 10.4259 9.49962 11.9999 9.49962Z" fill="#1976D2"/>
<path id="Vector_3" d="M12 10.9497C9.29996 10.9997 6.84996 12.2997 5.89996 14.9997C5.74996 15.4497 5.99996 15.9997 6.39996 15.9997H17.65C18.05 15.9997 18.3 15.4497 18.15 14.9997C17.15 12.2997 14.7 10.9997 12 10.9497Z" fill="#1976D2"/>
</g>
</g>
</g>
</g>
</g>
<defs>
<clipPath id="clip0_1_1229">
<rect width="24" height="24" fill="white"/>
</clipPath>
</defs>
</svg>
