<svg width="24" height="24" viewBox="0 0 24 24" fill="none" xmlns="http://www.w3.org/2000/svg">
<g id="add photo">
<path id="Vector" d="M10.4945 4.95683C10.0803 4.95683 9.74455 5.29262 9.74455 5.70683C9.74455 6.12105 10.0803 6.45683 10.4945 6.45683V4.95683ZM5.58606 13.5083C5.58606 13.0941 5.25028 12.7583 4.83606 12.7583C4.42185 12.7583 4.08606 13.0941 4.08606 13.5083H5.58606ZM16.5401 6.95772L15.8521 7.25629V7.25629L16.5401 6.95772ZM20.2161 18.7374L20.6574 19.3438L20.2161 18.7374ZM20.9051 18.047L20.298 17.6067L20.9051 18.047ZM17.0795 8.09646L16.9055 8.826L17.0795 8.09646ZM16.9974 8.01156L17.6854 7.71298V7.71298L16.9974 8.01156ZM17.0205 8.05771L16.4202 8.50736L17.0205 8.05771ZM5.29506 17.8433L5.93486 17.4519L5.29506 17.8433ZM6.32335 18.8735L6.71576 18.2344L6.32335 18.8735ZM19.354 8.25406L19.1204 8.96674L19.354 8.25406ZM21.3455 10.2493L20.6326 10.4822L21.3455 10.2493ZM6.36475 4.66664C6.36475 4.25243 6.02896 3.91664 5.61475 3.91664C5.20054 3.91664 4.86475 4.25243 4.86475 4.66664H6.36475ZM4.86475 10.9078C4.86475 11.322 5.20054 11.6578 5.61475 11.6578C6.02896 11.6578 6.36475 11.322 6.36475 10.9078H4.86475ZM2.5 7.03722C2.08579 7.03722 1.75 7.373 1.75 7.78722C1.75 8.20143 2.08579 8.53722 2.5 8.53722V7.03722ZM8.7295 8.53722C9.14372 8.53722 9.4795 8.20143 9.4795 7.78722C9.4795 7.373 9.14372 7.03722 8.7295 7.03722V8.53722ZM15.5587 13.0922C15.5587 14.4028 14.4987 15.4628 13.194 15.4628V16.9628C15.3298 16.9628 17.0587 15.2286 17.0587 13.0922H15.5587ZM13.194 15.4628C11.8893 15.4628 10.8292 14.4028 10.8292 13.0922H9.32925C9.32925 15.2286 11.0582 16.9628 13.194 16.9628V15.4628ZM10.8292 13.0922C10.8292 11.7817 11.8893 10.7217 13.194 10.7217V9.22166C11.0582 9.22166 9.32925 10.9559 9.32925 13.0922H10.8292ZM13.194 10.7217C14.4987 10.7217 15.5587 11.7817 15.5587 13.0922H17.0587C17.0587 10.9559 15.3298 9.22166 13.194 9.22166V10.7217ZM14.6358 4.95683H10.4945V6.45683H14.6358V4.95683ZM10.1312 20.0834H15.8934V18.5834H10.1312V20.0834ZM22.25 13.7163V12.4765H20.75V13.7163H22.25ZM13.194 15.4628C11.8445 15.4628 10.8292 14.4477 10.8292 13.0922H9.32925C9.32925 15.2734 11.0134 16.9628 13.194 16.9628V15.4628ZM10.8292 13.0922C10.8292 11.7368 11.8445 10.7217 13.194 10.7217V9.22166C11.0134 9.22166 9.32925 10.911 9.32925 13.0922H10.8292ZM13.194 10.7217C14.5435 10.7217 15.5587 11.7368 15.5587 13.0922H17.0587C17.0587 10.911 15.3746 9.22166 13.194 9.22166V10.7217ZM15.5587 13.0922C15.5587 14.36 14.5273 15.4628 13.194 15.4628V16.9628C15.3907 16.9628 17.0587 15.1531 17.0587 13.0922H15.5587ZM17.6854 7.71298L17.2281 6.65914L15.8521 7.25629L16.3094 8.31013L17.6854 7.71298ZM5.58606 14.0284V13.5083H4.08606V14.0284H5.58606ZM14.6358 6.45683C14.9822 6.45683 15.1827 6.45784 15.3309 6.4738C15.3978 6.48102 15.4343 6.48961 15.4532 6.49544C15.4689 6.50028 15.473 6.50331 15.474 6.50399L16.2975 5.25028C16.0331 5.07655 15.7566 5.011 15.4916 4.98244C15.2447 4.95583 14.9499 4.95683 14.6358 4.95683V6.45683ZM17.2281 6.65914C17.1028 6.37048 16.9863 6.09944 16.8636 5.88335C16.7319 5.65157 16.5619 5.42395 16.2975 5.25028L15.474 6.50399C15.4751 6.50468 15.4795 6.50728 15.4904 6.51994C15.5034 6.53513 15.5258 6.56531 15.5592 6.62408C15.633 6.754 15.714 6.9381 15.8521 7.25629L17.2281 6.65914ZM15.8934 20.0834C17.0447 20.0834 17.9684 20.0844 18.7046 20.0045C19.4549 19.923 20.0988 19.7504 20.6574 19.3438L19.7747 18.131C19.5145 18.3204 19.1651 18.4457 18.5427 18.5132C17.9063 18.5823 17.0781 18.5834 15.8934 18.5834V20.0834ZM20.75 13.7163C20.75 14.9031 20.749 15.7331 20.68 16.371C20.6125 16.995 20.4873 17.3457 20.298 17.6067L21.5123 18.4873C21.9178 17.9281 22.0901 17.2835 22.1713 16.5323C22.251 15.795 22.25 14.8698 22.25 13.7163H20.75ZM20.6574 19.3438C20.9855 19.1049 21.274 18.8159 21.5123 18.4873L20.298 17.6067C20.152 17.808 19.9754 17.9849 19.7747 18.131L20.6574 19.3438ZM17.131 7.34929C17.1234 7.34929 17.1212 7.34928 17.1199 7.34927C17.1187 7.34926 17.1241 7.34928 17.1325 7.34965C17.1503 7.35043 17.1959 7.35318 17.2535 7.36692L16.9055 8.826C16.975 8.84257 17.033 8.84673 17.067 8.84822C17.0952 8.84945 17.1241 8.84929 17.131 8.84929V7.34929ZM16.3094 8.31013C16.3121 8.31645 16.3235 8.34296 16.3358 8.36832C16.3507 8.39882 16.3775 8.45032 16.4202 8.50736L17.6208 7.60805C17.6562 7.65532 17.6768 7.69588 17.6845 7.71181C17.6882 7.7194 17.6903 7.72424 17.6898 7.72317C17.6893 7.722 17.6884 7.71989 17.6854 7.71298L16.3094 8.31013ZM17.2535 7.36692C17.4005 7.40199 17.5304 7.48741 17.6208 7.60805L16.4202 8.50736C16.5397 8.66684 16.7113 8.77969 16.9055 8.826L17.2535 7.36692ZM4.08606 14.0284C4.08606 15.0354 4.08527 15.8432 4.14679 16.4914C4.20936 17.1507 4.34162 17.7219 4.65525 18.2346L5.93486 17.4519C5.7895 17.2143 5.69226 16.8995 5.64008 16.3497C5.58685 15.7888 5.58606 15.0644 5.58606 14.0284H4.08606ZM10.1312 18.5834C9.097 18.5834 8.37416 18.5826 7.81455 18.5293C7.26617 18.477 6.95252 18.3797 6.71576 18.2344L5.93094 19.5127C6.44319 19.8272 7.01384 19.9598 7.67231 20.0225C8.31955 20.0842 9.1261 20.0834 10.1312 20.0834V18.5834ZM4.65525 18.2346C4.97378 18.7554 5.41089 19.1934 5.93094 19.5127L6.71576 18.2344C6.39761 18.039 6.12999 17.7709 5.93486 17.4519L4.65525 18.2346ZM17.131 8.84929C18.3572 8.84929 18.7908 8.8587 19.1204 8.96674L19.5877 7.54139C18.9731 7.33988 18.2394 7.34929 17.131 7.34929V8.84929ZM22.25 12.4765C22.25 11.3657 22.2593 10.6314 22.0584 10.0164L20.6326 10.4822C20.7407 10.813 20.75 11.2483 20.75 12.4765H22.25ZM19.1204 8.96674C19.8361 9.2014 20.398 9.76395 20.6326 10.4822L22.0584 10.0164C21.6757 8.84471 20.7583 7.92522 19.5877 7.54139L19.1204 8.96674ZM4.86475 4.66664V7.78722H6.36475V4.66664H4.86475ZM4.86475 7.78722V10.9078H6.36475V7.78722H4.86475ZM2.5 8.53722H5.61475V7.03722H2.5V8.53722ZM5.61475 8.53722H8.7295V7.03722H5.61475V8.53722Z" fill="#1976D2"/>
</g>
</svg>
