<svg width="16" height="4" viewBox="0 0 16 4" fill="none" xmlns="http://www.w3.org/2000/svg">
    <rect width="3.55556" height="3.55556" rx="1.77778" fill="#404040"/>
    <rect x="6.22217" width="3.55556" height="3.55556" rx="1.77778" fill="#404040"/>
    <rect x="12.4443" width="3.55556" height="3.55556" rx="1.77778" fill="#404040"/>
</svg>
