<svg width="53" height="52" viewBox="0 0 53 52" fill="none" xmlns="http://www.w3.org/2000/svg">
<path d="M32.5368 28.5209C34.0495 28.5209 35.2758 27.2946 35.2758 25.7819C35.2758 24.2692 34.0495 23.043 32.5368 23.043C31.0241 23.043 29.7979 24.2692 29.7979 25.7819C29.7979 27.2946 31.0241 28.5209 32.5368 28.5209Z" stroke="#1976D2" stroke-width="2" stroke-linejoin="round"/>
<path d="M22.3639 21.4779C23.8766 21.4779 25.1029 20.2516 25.1029 18.7389C25.1029 17.2263 23.8766 16 22.3639 16C20.8513 16 19.625 17.2263 19.625 18.7389C19.625 20.2516 20.8513 21.4779 22.3639 21.4779Z" stroke="#1976D2" stroke-width="2" stroke-linejoin="round"/>
<path d="M22.3639 35.5638C23.8766 35.5638 25.1029 34.3376 25.1029 32.8249C25.1029 31.3122 23.8766 30.0859 22.3639 30.0859C20.8513 30.0859 19.625 31.3122 19.625 32.8249C19.625 34.3376 20.8513 35.5638 22.3639 35.5638Z" stroke="#1976D2" stroke-width="2" stroke-linejoin="round"/>
<path d="M24.625 20.5L30.125 24.5M24.625 31.5L30.625 27.5" stroke="#1976D2" stroke-width="2"/>
<rect x="0.625" width="52" height="52" rx="17.3333" fill="#0080FF" fill-opacity="0.08"/>
</svg>
