<svg width="44" height="44" viewBox="0 0 44 44" fill="none" xmlns="http://www.w3.org/2000/svg">
<rect x="1" y="1" width="41.4966" height="41.4966" rx="14" stroke="#1976D2" stroke-width="1.5"/>
<path d="M24.9159 29.6354L23.1007 28.5757L21.2855 27.516C21.1495 27.4359 20.9958 27.3937 20.8394 27.3937C20.683 27.3937 20.5293 27.4359 20.3933 27.516L18.5792 28.5757L16.7652 29.6354C16.5555 29.7576 16.3077 29.7887 16.076 29.7218C15.8443 29.6549 15.6476 29.4955 15.5292 29.2785C15.4761 29.1806 15.4402 29.0738 15.423 28.9629C15.406 28.8518 15.4085 28.7384 15.4303 28.6281L15.8421 26.5128L16.2539 24.3968C16.2859 24.2386 16.2778 24.0745 16.2303 23.9205C16.1829 23.7665 16.0977 23.6279 15.9831 23.5182L14.4494 22.0567L12.9162 20.5952C12.787 20.4736 12.6945 20.3159 12.6497 20.1411C12.6048 19.9663 12.6096 19.7817 12.6634 19.6097C12.7171 19.4376 12.8177 19.2852 12.9529 19.1709C13.0881 19.0565 13.2523 18.985 13.4258 18.9649L15.4949 18.7169L17.5635 18.4694C17.7188 18.4511 17.8668 18.3916 17.9933 18.2965C18.1198 18.2014 18.2204 18.074 18.2854 17.9267L19.1512 15.9639L20.0175 14.0006C20.067 13.8878 20.1375 13.7863 20.2249 13.7018C20.3124 13.6173 20.415 13.5516 20.527 13.5083C20.639 13.465 20.7582 13.4451 20.8776 13.4496C20.9971 13.4542 21.1145 13.4831 21.2231 13.5348C21.321 13.5815 21.4102 13.6458 21.4866 13.7246C21.563 13.8036 21.6251 13.8963 21.6698 13.9982L22.5361 15.9616L23.4018 17.9244C23.4673 18.0714 23.568 18.1984 23.6944 18.2935C23.8208 18.3885 23.9687 18.4483 24.1238 18.4671L26.1929 18.7145L28.2615 18.9626C28.4349 18.9828 28.599 19.0543 28.7342 19.1685C28.8694 19.2828 28.97 19.435 29.024 19.6069C29.078 19.7789 29.0831 19.9633 29.0386 20.1381C28.9941 20.313 28.902 20.4709 28.7733 20.5929" stroke="#1976D2" stroke-width="1.5" stroke-miterlimit="10" stroke-linecap="round"/>
<path d="M27.6457 22.5422L27.6457 28.3874" stroke="#1976D2" stroke-width="1.5" stroke-linecap="round"/>
<path d="M30.5683 25.4648H24.7231" stroke="#1976D2" stroke-width="1.5" stroke-linecap="round"/>
</svg>
