<svg width="24" height="24" viewBox="0 0 24 24" fill="none" xmlns="http://www.w3.org/2000/svg">
<g id="Frame 6254">
<g id="Vector">
<path d="M7.03291 12.4235C7.08794 12.1819 7.25303 12.0007 7.41812 11.8799L9.45421 10.853C9.72936 10.7322 9.89445 10.4906 10.0045 10.1886L10.5548 8.25575C10.8299 7.34972 11.6004 6.8061 12.4258 6.98731C12.9211 7.04771 13.4163 7.28932 13.9116 7.77253C14.3518 8.13495 15.5625 9.34298 15.5625 9.34298C15.8927 9.70539 16.1128 10.1282 16.2228 10.6718L16.498 13.1483C16.553 13.3899 16.443 13.6315 16.3329 13.8127C16.1678 13.9939 15.9477 14.0543 15.7826 14.0543C15.4524 14.0543 15.1222 13.7523 15.1222 13.3295L14.8471 11.2758C14.7921 10.9738 14.682 10.6718 14.4619 10.4302L13.5264 9.52419L14.2418 12.7859V12.8463L9.78439 20.3965C9.6193 20.6985 9.28912 20.8798 8.95894 20.8798C8.79386 20.8798 8.62877 20.8194 8.46368 20.759C8.24356 20.6381 8.07847 20.3965 8.02344 20.0945C7.96841 19.7925 8.02344 19.5509 8.1335 19.2489L11.6004 13.2087L11.1051 10.7926L10.94 11.3362C10.8299 11.6987 10.6098 12.0007 10.3347 12.1215L8.07847 13.3295C7.7483 13.5107 7.36309 13.3899 7.14297 13.0879C6.97788 12.9067 6.97788 12.6651 7.03291 12.4235Z" fill="#404040"/>
<path d="M14.957 16.6511L16.828 19.49C17.1032 19.9128 17.0482 20.4564 16.6629 20.8188C16.4979 20.9396 16.3328 21 16.1677 21C15.8925 21 15.6724 20.8792 15.5073 20.6376L13.3612 17.6175L12.976 15.9866L14.3517 14.0538L14.957 16.6511Z" fill="#404040"/>
<path d="M11.0308 6.27465C10.2217 6.27465 9.56431 5.54068 9.56431 4.63733C9.56431 3.73397 10.2217 3 11.0308 3C11.8398 3 12.5478 3.73397 12.5478 4.63733C12.5478 5.54068 11.8398 6.27465 11.0308 6.27465Z" fill="#404040"/>
</g>
</g>
</svg>
